{
  "data": [
    {
      "appearDate": "20260612",
      "applyCnt": 7,
      "coIndustry": 1011003001,
      "coIndustryDesc": "建築及工程技術服務業",
      "custName": "亞新工程顧問股份有限公司",
      "custNo": "4723653000",
      "description": "工程、IoT、BIM、AI），推動數位轉型與自動化流程\n\n【希望條件】\n- 熟悉現代軟體系統研發流程與版本控制\n- 熟悉至少一種指令式程式設計語言（C#、JavaScript、Python、PHP 尤佳）\n- 具 ASP.NET、SQL、Vue.",
      "descSnippet": "工程、IoT、BIM、AI），推動數位轉型與自動化流程\n\n【希望條件】\n- 熟悉現代軟體系統研發流程與版本控制\n- 熟悉至少一種指令式程式設計語言（C#、JavaScript、[[[Python]]]、PHP 尤佳）\n- 具 ASP.NET、SQL、Vue.",
      "mrtDist": 0,
      "jobAddress": "新台五路一段112號22樓",
      "jobAddrNo": 6001002004,
      "jobAddrNoDesc": "新北市汐止區",
      "jobName": "軟體工程師 (數位工程發展部)",
      "jobNameSnippet": "軟體工程師 (數位工程發展部)",
      "jobNo": "14882131",
      "jobRo": 1,
      "jobType": 1,
      "lat": 25.060495,
      "lon": 121.649211,
      "link": {
        "job": "https://www.104.com.tw/job/8uz4j",
        "cust": "https://www.104.com.tw/company/264c9zc",
        "applyAnalyze": "https://www.104.com.tw/jobs/apply/analysis/8uz4j?channel=104rpt"
      },
      "major": [
        "資訊工程相關"
      ],
      "mrt": "",
      "mrtDesc": "",
      "optionEdu": [
        4,
        5,
        6
      ],
      "period": 0,
      "remoteWorkType": 0,
      "s10": 10,
      "salaryHigh": 0,
      "salaryLow": 0,
      "tags": {
        "wf9": {
          "desc": "",
          "param": "wf9"
        },
        "wf7": {
          "desc": "",
          "param": "wf7"
        },
        "wf26": {
          "desc": "",
          "param": "wf26"
        },
        "wf8": {
          "desc": "",
          "param": "wf8"
        },
        "wf10": {
          "desc": "",
          "param": "wf10"
        },
        "wf30": {
          "desc": "",
          "param": "wf30"
        },
        "wf2": {
          "desc": "",
          "param": "wf2"
        },
        "wf29": {
          "desc": "",
          "param": "wf29"
        }
      },
      "s9": [
        1
      ],
      "s5": 0,
      "d3": "",
      "hrBehaviorPR": 0.40479953123335344,
      "jobCat": [
        2007001004
      ],
      "labels": [
        "c@wf9",
        "c@wf7",
        "indexjob@ij005",
        "c@wf26",
        "indexjob@ij017",
        "c@wf8",
        "c@wf10",
        "c@wf30",
        "c@wf2",
        "c@wf29"
      ],
      "languageRequirements": [
        {
          "language": 1,
          "ability": {
            "listening": 8,
            "speaking": 4,
            "reading": 8,
            "writing": 4
          }
        }
      ],
      "acceptRole": [
        64
      ],
      "employeeCount": 1200,
      "pcSkills": [
        {
          "code": "12001003009",
          "description": "C#"
        },
        {
          "code": "12001003006",
          "description": "ASP.NET"
        },
        {
          "code": "12001004031",
          "description": "MS SQL"
        },
        {
          "code": "12001003045",
          "description": "Python"
        },
        {
          "code": "12003001003",
          "description": "GIS"
        },
        {
          "code": "12001003094",
          "description": "IoT"
        },
        {
          "code": "12002003010",
          "description": "Revit"
        }
      ],
      "pddScore": 0.128044,
      "custLogo": "https://static.104.com.tw/b_profile/cust_picture/3000/4723653000/logo.jpg?v=20251109153133",
      "jobSwitch": "on",
      "isSave": null,
      "interactionRecord": {
        "lastProcessedResumeAtTime": 1781668000,
        "lastCustReplyTimestamp": 1781078893,
        "nowTimestamp": 1782018620
      },
      "isApplied": null,
      "applyDate": null,
      "userApplyCount": null
    }
  ],
  "metadata": {
    "pagination": {
      "count": 3,
      "currentPage": 1,
      "lastPage": 3000,
      "total": 9206
    },
    "isPreciseHotJob": false,
    "filterQuery": {
      "order": 15,
      "asc": 0,
      "keyword": "python",
      "fz": 8,
      "kwop": 7,
      "excludeKwFz": 4,
      "excludeKwKwop": 8,
      "enableJobNoTopOrder": 1,
      "ro": [
        0
      ],
      "scstrict": 0,
      "scneg": 0,
      "page": 1,
      "pagesize": 1
    },
    "offJobs": [],
    "personalBoost": 0
  }
}